Titanic Death Rates
…
```r
my_data <- as_tibble(titanic)
my_data
```

```
## # A tibble: 891 × 12
##    PassengerId Survived Pclass Name   Sex     Age SibSp Parch Ticket  Fare Cabin
##          <dbl>    <dbl>  <dbl> <chr>  <chr> <dbl> <dbl> <dbl> <chr>  <dbl> <chr>
##  1           1        0      3 Braun… male     22     1     0 A/5 2…  7.25 <NA> 
##  2           2        1      1 Cumin… fema…    38     1     0 PC 17… 71.3  C85  
##  3           3        1      3 Heikk… fema…    26     0     0 STON/…  7.92 <NA> 
##  4           4        1      1 Futre… fema…    35     1     0 113803 53.1  C123 
##  5           5        0      3 Allen… male     35     0     0 373450  8.05 <NA> 
##  6           6        0      3 Moran… male     NA     0     0 330877  8.46 <NA> 
##  7           7        0      1 McCar… male     54     0     0 17463  51.9  E46  
##  8           8        0      3 Palss… male      2     3     1 349909 21.1  <NA> 
##  9           9        1      3 Johns… fema…    27     0     2 347742 11.1  <NA> 
## 10          10        1      2 Nasse… fema…    14     1     0 237736 30.1  <NA> 
## # … with 881 more rows, and 1 more variable: Embarked <chr>
```
…
Within the summary statistic above, we can see that the variables "Pclass" and "Survived" were grouped in order to find how many people survived based on their class. The dataset is broken down in a way that is easy to read but it is also an efficient way to gather the required information. Through using the function 'summarise(n = n())' the values for who survived is automatically calculated which therefore saves having to count manually.

```r
na.omit(titanic)
```

```
## # A tibble: 183 × 12
##    PassengerId Survived Pclass Name   Sex     Age SibSp Parch Ticket  Fare Cabin
##          <dbl>    <dbl>  <dbl> <chr>  <chr> <dbl> <dbl> <dbl> <chr>  <dbl> <chr>
##  1           2        1      1 Cumin… fema…    38     1     0 PC 17…  71.3 C85  
##  2           4        1      1 Futre… fema…    35     1     0 113803  53.1 C123 
##  3           7        0      1 McCar… male     54     0     0 17463   51.9 E46  
##  4          11        1      3 Sands… fema…     4     1     1 PP 95…  16.7 G6   
##  5          12        1      1 Bonne… fema…    58     0     0 113783  26.6 C103 
##  6          22        1      2 Beesl… male     34     0     0 248698  13   D56  
##  7          24        1      1 Slope… male     28     0     0 113788  35.5 A6   
##  8          28        0      1 Fortu… male     19     3     2 19950  263   C23 …
##  9          53        1      1 Harpe… fema…    49     1     0 PC 17…  76.7 D33  
## 10          55        0      1 Ostby… male     65     0     1 113509  62.0 B30  
## # … with 173 more rows, and 1 more variable: Embarked <chr>
```
…
